module broker

go 1.20

require (
	github.com/go-chi/chi/v5 v5.0.8 // indirect
	github.com/go-chi/cors v1.2.1 // indirect
	github.com/golang/protobuf v1.5.3 // indirect
	github.com/rabbitmq/amqp091-go v1.8.0 // indirect
	golang.org/x/net v0.8.0 // indirect
	golang.org/x/sys v0.6.0 // indirect
	golang.org/x/text v0.8.0 // indirect
	google.golang.org/genproto v0.0.0-20230306155012-7f2fa6fef1f4 // indirect
	google.golang.org/grpc v1.55.0 // indirect
	google.golang.org/protobuf v1.30.0 // indirect
)
